[
    {
        "bowler_name": "A Nehra",
        "run_rate": null
    },
    {
        "bowler_name": "MM Sharma",
        "run_rate": null
    },
    {
        "bowler_name": "R Ashwin",
        "run_rate": null
    },
    {
        "bowler_name": "RA Jadeja",
        "run_rate": null
    },
    {
        "bowler_name": "P Negi",
        "run_rate": null
    },
    {
        "bowler_name": "DJ Bravo",
        "run_rate": null
    },
    {
        "bowler_name": "DR Smith",
        "run_rate": null
    },
    {
        "bowler_name": "SL Malinga",
        "run_rate": null
    },
    {
        "bowler_name": "MJ McClenaghan",
        "run_rate": null
    },
    {
        "bowler_name": "R Vinay Kumar",
        "run_rate": null
    }
]