{
    "facebook": [
        "alfritz",
        "sam-curry",
        "mathew-larson",
        "Piegon",
        "Auroras",
        "idle-text",
        "mercy-forza"
    ],
    "discord": [
        "maxime",
        "henry-fare",
        "julis",
        "henry-argo",
        "alfritz",
        "sam-currey"
    ],
    "linkedIn": [
        "silver-hair",
        "gabbi-russo",
        "sam-currey",
        "marcusAlonso",
        "henry-argo",
        "al-fritz"
    ]
}